<?xml version="1.0" encoding="utf-8" standalone="yes"?>
<svg version="1.1" xmlns="http://www.w3.org/2000/svg" height="1024px" viewBox="0 0 745 1500">
<style type="text/css">
    <![CDATA[
	  svg {
	  	font-family:Arial,sans-serif;
		font-size:12pt;
	  }

	  .title-font {
	  	font-size:150%;
	  }

	  .legend-font {
	  	font-size:120%;
	  }

	  .timing-empty {
	  	fill: #a0a0a0;
	  }

	  .http500, .timing-error {
        fill: #df4040;
      }
   	  .http200, .timing-ok {
        fill: #40df40;
      }
   	  .http404, .timing-warn {
        fill: #dfdf40;
      }

	  .axis {
	  	stroke: #000000;
		stroke-width: 2;
	  }

	  .tick {
	  	stroke: #000000;
		stroke-width: 1;
	  }

	  .tickHour {
	  	stroke: #000000;
		stroke-width: 2;
	  }
 ]]>
  </style>
<text class="legend-font" x="20" y="820" transform="rotate(-90,20,820)">Uhrzeit</text>
<line x1="70" y1="0" x2="70" y2="1443" class="axis"/>
<text x="40" y="0">24</text>
<line class="tickHour" x1="70" y1="0" x2="60" y2="0" />
<line class="tick" x1="70" y1="15" x2="65" y2="15" />
<line class="tick" x1="70" y1="30" x2="65" y2="30" />
<line class="tick" x1="70" y1="45" x2="65" y2="45" />
<text x="40" y="60">23</text>
<line class="tickHour" x1="70" y1="60" x2="60" y2="60" />
<line class="tick" x1="70" y1="75" x2="65" y2="75" />
<line class="tick" x1="70" y1="90" x2="65" y2="90" />
<line class="tick" x1="70" y1="105" x2="65" y2="105" />
<text x="40" y="120">22</text>
<line class="tickHour" x1="70" y1="120" x2="60" y2="120" />
<line class="tick" x1="70" y1="135" x2="65" y2="135" />
<line class="tick" x1="70" y1="150" x2="65" y2="150" />
<line class="tick" x1="70" y1="165" x2="65" y2="165" />
<text x="40" y="180">21</text>
<line class="tickHour" x1="70" y1="180" x2="60" y2="180" />
<line class="tick" x1="70" y1="195" x2="65" y2="195" />
<line class="tick" x1="70" y1="210" x2="65" y2="210" />
<line class="tick" x1="70" y1="225" x2="65" y2="225" />
<text x="40" y="240">20</text>
<line class="tickHour" x1="70" y1="240" x2="60" y2="240" />
<line class="tick" x1="70" y1="255" x2="65" y2="255" />
<line class="tick" x1="70" y1="270" x2="65" y2="270" />
<line class="tick" x1="70" y1="285" x2="65" y2="285" />
<text x="40" y="300">19</text>
<line class="tickHour" x1="70" y1="300" x2="60" y2="300" />
<line class="tick" x1="70" y1="315" x2="65" y2="315" />
<line class="tick" x1="70" y1="330" x2="65" y2="330" />
<line class="tick" x1="70" y1="345" x2="65" y2="345" />
<text x="40" y="360">18</text>
<line class="tickHour" x1="70" y1="360" x2="60" y2="360" />
<line class="tick" x1="70" y1="375" x2="65" y2="375" />
<line class="tick" x1="70" y1="390" x2="65" y2="390" />
<line class="tick" x1="70" y1="405" x2="65" y2="405" />
<text x="40" y="420">17</text>
<line class="tickHour" x1="70" y1="420" x2="60" y2="420" />
<line class="tick" x1="70" y1="435" x2="65" y2="435" />
<line class="tick" x1="70" y1="450" x2="65" y2="450" />
<line class="tick" x1="70" y1="465" x2="65" y2="465" />
<text x="40" y="480">16</text>
<line class="tickHour" x1="70" y1="480" x2="60" y2="480" />
<line class="tick" x1="70" y1="495" x2="65" y2="495" />
<line class="tick" x1="70" y1="510" x2="65" y2="510" />
<line class="tick" x1="70" y1="525" x2="65" y2="525" />
<text x="40" y="540">15</text>
<line class="tickHour" x1="70" y1="540" x2="60" y2="540" />
<line class="tick" x1="70" y1="555" x2="65" y2="555" />
<line class="tick" x1="70" y1="570" x2="65" y2="570" />
<line class="tick" x1="70" y1="585" x2="65" y2="585" />
<text x="40" y="600">14</text>
<line class="tickHour" x1="70" y1="600" x2="60" y2="600" />
<line class="tick" x1="70" y1="615" x2="65" y2="615" />
<line class="tick" x1="70" y1="630" x2="65" y2="630" />
<line class="tick" x1="70" y1="645" x2="65" y2="645" />
<text x="40" y="660">13</text>
<line class="tickHour" x1="70" y1="660" x2="60" y2="660" />
<line class="tick" x1="70" y1="675" x2="65" y2="675" />
<line class="tick" x1="70" y1="690" x2="65" y2="690" />
<line class="tick" x1="70" y1="705" x2="65" y2="705" />
<text x="40" y="720">12</text>
<line class="tickHour" x1="70" y1="720" x2="60" y2="720" />
<line class="tick" x1="70" y1="735" x2="65" y2="735" />
<line class="tick" x1="70" y1="750" x2="65" y2="750" />
<line class="tick" x1="70" y1="765" x2="65" y2="765" />
<text x="40" y="780">11</text>
<line class="tickHour" x1="70" y1="780" x2="60" y2="780" />
<line class="tick" x1="70" y1="795" x2="65" y2="795" />
<line class="tick" x1="70" y1="810" x2="65" y2="810" />
<line class="tick" x1="70" y1="825" x2="65" y2="825" />
<text x="40" y="840">10</text>
<line class="tickHour" x1="70" y1="840" x2="60" y2="840" />
<line class="tick" x1="70" y1="855" x2="65" y2="855" />
<line class="tick" x1="70" y1="870" x2="65" y2="870" />
<line class="tick" x1="70" y1="885" x2="65" y2="885" />
<text x="40" y="900">9</text>
<line class="tickHour" x1="70" y1="900" x2="60" y2="900" />
<line class="tick" x1="70" y1="915" x2="65" y2="915" />
<line class="tick" x1="70" y1="930" x2="65" y2="930" />
<line class="tick" x1="70" y1="945" x2="65" y2="945" />
<text x="40" y="960">8</text>
<line class="tickHour" x1="70" y1="960" x2="60" y2="960" />
<line class="tick" x1="70" y1="975" x2="65" y2="975" />
<line class="tick" x1="70" y1="990" x2="65" y2="990" />
<line class="tick" x1="70" y1="1005" x2="65" y2="1005" />
<text x="40" y="1020">7</text>
<line class="tickHour" x1="70" y1="1020" x2="60" y2="1020" />
<line class="tick" x1="70" y1="1035" x2="65" y2="1035" />
<line class="tick" x1="70" y1="1050" x2="65" y2="1050" />
<line class="tick" x1="70" y1="1065" x2="65" y2="1065" />
<text x="40" y="1080">6</text>
<line class="tickHour" x1="70" y1="1080" x2="60" y2="1080" />
<line class="tick" x1="70" y1="1095" x2="65" y2="1095" />
<line class="tick" x1="70" y1="1110" x2="65" y2="1110" />
<line class="tick" x1="70" y1="1125" x2="65" y2="1125" />
<text x="40" y="1140">5</text>
<line class="tickHour" x1="70" y1="1140" x2="60" y2="1140" />
<line class="tick" x1="70" y1="1155" x2="65" y2="1155" />
<line class="tick" x1="70" y1="1170" x2="65" y2="1170" />
<line class="tick" x1="70" y1="1185" x2="65" y2="1185" />
<text x="40" y="1200">4</text>
<line class="tickHour" x1="70" y1="1200" x2="60" y2="1200" />
<line class="tick" x1="70" y1="1215" x2="65" y2="1215" />
<line class="tick" x1="70" y1="1230" x2="65" y2="1230" />
<line class="tick" x1="70" y1="1245" x2="65" y2="1245" />
<text x="40" y="1260">3</text>
<line class="tickHour" x1="70" y1="1260" x2="60" y2="1260" />
<line class="tick" x1="70" y1="1275" x2="65" y2="1275" />
<line class="tick" x1="70" y1="1290" x2="65" y2="1290" />
<line class="tick" x1="70" y1="1305" x2="65" y2="1305" />
<text x="40" y="1320">2</text>
<line class="tickHour" x1="70" y1="1320" x2="60" y2="1320" />
<line class="tick" x1="70" y1="1335" x2="65" y2="1335" />
<line class="tick" x1="70" y1="1350" x2="65" y2="1350" />
<line class="tick" x1="70" y1="1365" x2="65" y2="1365" />
<text x="40" y="1380">1</text>
<line class="tickHour" x1="70" y1="1380" x2="60" y2="1380" />
<line class="tick" x1="70" y1="1395" x2="65" y2="1395" />
<line class="tick" x1="70" y1="1410" x2="65" y2="1410" />
<line class="tick" x1="70" y1="1425" x2="65" y2="1425" />
<line class="tick" x1="70" y1="1443" x2="745" y2="1443" />
<rect x="75" y="840" width="80" height="5" class="http200"/>
<rect x="75" y="837" width="80" height="5" class="http200"/>
<rect x="75" y="834" width="80" height="5" class="http200"/>
<rect x="75" y="831" width="80" height="5" class="http200"/>
<rect x="75" y="828" width="80" height="5" class="http200"/>
<rect x="75" y="825" width="80" height="5" class="http200"/>
<rect x="75" y="822" width="80" height="5" class="http200"/>
<rect x="75" y="819" width="80" height="5" class="http200"/>
<rect x="75" y="816" width="80" height="5" class="http200"/>
<rect x="75" y="813" width="80" height="5" class="http200"/>
<rect x="75" y="810" width="80" height="5" class="http200"/>
<rect x="75" y="807" width="80" height="5" class="http200"/>
<rect x="75" y="804" width="80" height="5" class="http200"/>
<rect x="75" y="801" width="80" height="5" class="http200"/>
<rect x="75" y="798" width="80" height="5" class="http200"/>
<rect x="75" y="795" width="80" height="5" class="http200"/>
<rect x="75" y="792" width="80" height="5" class="http200"/>
<rect x="75" y="789" width="80" height="5" class="http200"/>
<rect x="75" y="786" width="80" height="5" class="http200"/>
<rect x="75" y="783" width="80" height="5" class="http200"/>
<rect x="75" y="780" width="80" height="5" class="http200"/>
<rect x="75" y="777" width="80" height="5" class="http500"/>
<rect x="75" y="774" width="80" height="5" class="http500"/>
<rect x="75" y="771" width="80" height="5" class="http500"/>
<rect x="75" y="768" width="80" height="5" class="http500"/>
<rect x="75" y="765" width="80" height="5" class="http404"/>
<rect x="75" y="762" width="80" height="5" class="http404"/>
<rect x="75" y="759" width="80" height="5" class="http200"/>
<rect x="75" y="756" width="80" height="5" class="http200"/>
<rect x="75" y="753" width="80" height="5" class="http200"/>
<rect x="75" y="750" width="80" height="5" class="http200"/>
<rect x="75" y="747" width="80" height="5" class="http200"/>
<rect x="75" y="744" width="80" height="5" class="http200"/>
<rect x="75" y="741" width="80" height="5" class="http200"/>
<rect x="75" y="738" width="80" height="5" class="http200"/>
<rect x="75" y="735" width="80" height="5" class="http200"/>
<rect x="75" y="732" width="80" height="5" class="http200"/>
<rect x="75" y="729" width="80" height="5" class="http200"/>
<rect x="75" y="726" width="80" height="5" class="http200"/>
<rect x="75" y="723" width="80" height="5" class="http200"/>
<rect x="160" y="840" width="80" height="5" class="http200"/>
<rect x="160" y="837" width="80" height="5" class="http200"/>
<rect x="160" y="834" width="80" height="5" class="http200"/>
<rect x="160" y="831" width="80" height="5" class="http200"/>
<rect x="160" y="828" width="80" height="5" class="http200"/>
<rect x="160" y="825" width="80" height="5" class="http200"/>
<rect x="160" y="822" width="80" height="5" class="http200"/>
<rect x="160" y="819" width="80" height="5" class="http200"/>
<rect x="160" y="816" width="80" height="5" class="http200"/>
<rect x="160" y="813" width="80" height="5" class="http200"/>
<rect x="160" y="810" width="80" height="5" class="http200"/>
<rect x="160" y="807" width="80" height="5" class="http200"/>
<rect x="160" y="804" width="80" height="5" class="http200"/>
<rect x="160" y="801" width="80" height="5" class="http200"/>
<rect x="160" y="798" width="80" height="5" class="http200"/>
<rect x="160" y="795" width="80" height="5" class="http200"/>
<rect x="160" y="792" width="80" height="5" class="http200"/>
<rect x="160" y="789" width="80" height="5" class="http200"/>
<rect x="160" y="786" width="80" height="5" class="http200"/>
<rect x="160" y="783" width="80" height="5" class="http200"/>
<rect x="160" y="780" width="80" height="5" class="http200"/>
<rect x="160" y="777" width="80" height="5" class="http500"/>
<rect x="160" y="774" width="80" height="5" class="http500"/>
<rect x="160" y="771" width="80" height="5" class="http500"/>
<rect x="160" y="768" width="80" height="5" class="http500"/>
<rect x="160" y="765" width="80" height="5" class="http404"/>
<rect x="160" y="762" width="80" height="5" class="http404"/>
<rect x="160" y="759" width="80" height="5" class="http200"/>
<rect x="160" y="756" width="80" height="5" class="http200"/>
<rect x="160" y="753" width="80" height="5" class="http200"/>
<rect x="160" y="750" width="80" height="5" class="http200"/>
<rect x="160" y="747" width="80" height="5" class="http200"/>
<rect x="160" y="744" width="80" height="5" class="http200"/>
<rect x="160" y="741" width="80" height="5" class="http200"/>
<rect x="160" y="738" width="80" height="5" class="http200"/>
<rect x="160" y="735" width="80" height="5" class="http200"/>
<rect x="160" y="732" width="80" height="5" class="http200"/>
<rect x="160" y="729" width="80" height="5" class="http200"/>
<rect x="160" y="726" width="80" height="5" class="http200"/>
<rect x="160" y="723" width="80" height="5" class="http200"/>
<rect x="245" y="840" width="80" height="5" class="http200"/>
<rect x="245" y="837" width="80" height="5" class="http200"/>
<rect x="245" y="834" width="80" height="5" class="http200"/>
<rect x="245" y="831" width="80" height="5" class="http200"/>
<rect x="245" y="828" width="80" height="5" class="http200"/>
<rect x="245" y="825" width="80" height="5" class="http200"/>
<rect x="245" y="822" width="80" height="5" class="http200"/>
<rect x="245" y="819" width="80" height="5" class="http200"/>
<rect x="245" y="816" width="80" height="5" class="http200"/>
<rect x="245" y="813" width="80" height="5" class="http200"/>
<rect x="245" y="810" width="80" height="5" class="http200"/>
<rect x="245" y="807" width="80" height="5" class="http200"/>
<rect x="245" y="804" width="80" height="5" class="http200"/>
<rect x="245" y="801" width="80" height="5" class="http200"/>
<rect x="245" y="798" width="80" height="5" class="http200"/>
<rect x="245" y="795" width="80" height="5" class="http200"/>
<rect x="245" y="792" width="80" height="5" class="http200"/>
<rect x="245" y="789" width="80" height="5" class="http200"/>
<rect x="245" y="786" width="80" height="5" class="http200"/>
<rect x="245" y="783" width="80" height="5" class="http200"/>
<rect x="245" y="780" width="80" height="5" class="http200"/>
<rect x="245" y="777" width="80" height="5" class="http500"/>
<rect x="245" y="774" width="80" height="5" class="http500"/>
<rect x="245" y="771" width="80" height="5" class="http500"/>
<rect x="245" y="768" width="80" height="5" class="http500"/>
<rect x="245" y="765" width="80" height="5" class="http404"/>
<rect x="245" y="762" width="80" height="5" class="http404"/>
<rect x="245" y="759" width="80" height="5" class="http200"/>
<rect x="245" y="756" width="80" height="5" class="http200"/>
<rect x="245" y="753" width="80" height="5" class="http200"/>
<rect x="245" y="750" width="80" height="5" class="http200"/>
<rect x="245" y="747" width="80" height="5" class="http200"/>
<rect x="245" y="744" width="80" height="5" class="http200"/>
<rect x="245" y="741" width="80" height="5" class="http200"/>
<rect x="245" y="738" width="80" height="5" class="http200"/>
<rect x="245" y="735" width="80" height="5" class="http200"/>
<rect x="245" y="732" width="80" height="5" class="http200"/>
<rect x="245" y="729" width="80" height="5" class="http200"/>
<rect x="245" y="726" width="80" height="5" class="http200"/>
<rect x="245" y="723" width="80" height="5" class="http200"/>
<rect x="330" y="1440" width="80" height="5" class="http200"/>
<rect x="330" y="1437" width="80" height="5" class="http200"/>
<rect x="330" y="1434" width="80" height="5" class="http200"/>
<rect x="330" y="1431" width="80" height="5" class="http200"/>
<rect x="330" y="1428" width="80" height="5" class="http200"/>
<rect x="330" y="1425" width="80" height="5" class="http200"/>
<rect x="330" y="1422" width="80" height="5" class="http200"/>
<rect x="330" y="1419" width="80" height="5" class="http200"/>
<rect x="330" y="1416" width="80" height="5" class="http200"/>
<rect x="330" y="1413" width="80" height="5" class="http200"/>
<rect x="330" y="1410" width="80" height="5" class="http200"/>
<rect x="330" y="1407" width="80" height="5" class="http200"/>
<rect x="330" y="1404" width="80" height="5" class="http200"/>
<rect x="330" y="1401" width="80" height="5" class="http200"/>
<rect x="330" y="1398" width="80" height="5" class="http200"/>
<rect x="330" y="1395" width="80" height="5" class="http200"/>
<rect x="330" y="1392" width="80" height="5" class="http200"/>
<rect x="330" y="1389" width="80" height="5" class="http200"/>
<rect x="330" y="1386" width="80" height="5" class="http200"/>
<rect x="330" y="1383" width="80" height="5" class="http200"/>
<rect x="330" y="1380" width="80" height="5" class="http200"/>
<rect x="330" y="1377" width="80" height="5" class="http500"/>
<rect x="330" y="1374" width="80" height="5" class="http500"/>
<rect x="330" y="1371" width="80" height="5" class="http500"/>
<rect x="330" y="1368" width="80" height="5" class="http500"/>
<rect x="330" y="1365" width="80" height="5" class="http404"/>
<rect x="330" y="1362" width="80" height="5" class="http404"/>
<rect x="330" y="1359" width="80" height="5" class="http200"/>
<rect x="330" y="1356" width="80" height="5" class="http200"/>
<rect x="330" y="1353" width="80" height="5" class="http200"/>
<rect x="330" y="1350" width="80" height="5" class="http200"/>
<rect x="330" y="1347" width="80" height="5" class="http200"/>
<rect x="330" y="1344" width="80" height="5" class="http200"/>
<rect x="330" y="1341" width="80" height="5" class="http200"/>
<rect x="330" y="1338" width="80" height="5" class="http200"/>
<rect x="330" y="1335" width="80" height="5" class="http200"/>
<rect x="330" y="1332" width="80" height="5" class="http200"/>
<rect x="330" y="1329" width="80" height="5" class="http200"/>
<rect x="330" y="1326" width="80" height="5" class="http200"/>
<rect x="330" y="1323" width="80" height="5" class="http200"/>
<rect x="330" y="1320" width="80" height="5" class="http200"/>
<rect x="330" y="1317" width="80" height="5" class="http200"/>
<rect x="330" y="1314" width="80" height="5" class="http200"/>
<rect x="330" y="1311" width="80" height="5" class="http200"/>
<rect x="330" y="1308" width="80" height="5" class="http200"/>
<rect x="330" y="1305" width="80" height="5" class="http200"/>
<rect x="330" y="1302" width="80" height="5" class="http200"/>
<rect x="330" y="1299" width="80" height="5" class="http200"/>
<rect x="330" y="1296" width="80" height="5" class="http200"/>
<rect x="330" y="1293" width="80" height="5" class="http200"/>
<rect x="330" y="1290" width="80" height="5" class="http200"/>
<rect x="330" y="1287" width="80" height="5" class="http200"/>
<rect x="330" y="1284" width="80" height="5" class="http200"/>
<rect x="330" y="1281" width="80" height="5" class="http200"/>
<rect x="330" y="1278" width="80" height="5" class="http200"/>
<rect x="330" y="1275" width="80" height="5" class="http200"/>
<rect x="330" y="1272" width="80" height="5" class="http200"/>
<rect x="330" y="1269" width="80" height="5" class="http200"/>
<rect x="330" y="1266" width="80" height="5" class="http200"/>
<rect x="330" y="1263" width="80" height="5" class="http200"/>
<rect x="330" y="1260" width="80" height="5" class="http200"/>
<rect x="330" y="1257" width="80" height="5" class="http500"/>
<rect x="330" y="1254" width="80" height="5" class="http500"/>
<rect x="330" y="1251" width="80" height="5" class="http500"/>
<rect x="330" y="1248" width="80" height="5" class="http500"/>
<rect x="330" y="1245" width="80" height="5" class="http404"/>
<rect x="330" y="1242" width="80" height="5" class="http404"/>
<rect x="330" y="1239" width="80" height="5" class="http200"/>
<rect x="330" y="1236" width="80" height="5" class="http200"/>
<rect x="330" y="1233" width="80" height="5" class="http200"/>
<rect x="330" y="1230" width="80" height="5" class="http200"/>
<rect x="330" y="1227" width="80" height="5" class="http200"/>
<rect x="330" y="1224" width="80" height="5" class="http200"/>
<rect x="330" y="1221" width="80" height="5" class="http200"/>
<rect x="330" y="1218" width="80" height="5" class="http200"/>
<rect x="330" y="1215" width="80" height="5" class="http200"/>
<rect x="330" y="1212" width="80" height="5" class="http200"/>
<rect x="330" y="1209" width="80" height="5" class="http200"/>
<rect x="330" y="1206" width="80" height="5" class="http200"/>
<rect x="330" y="1203" width="80" height="5" class="http200"/>
<rect x="330" y="1200" width="80" height="5" class="http200"/>
<rect x="330" y="1197" width="80" height="5" class="http200"/>
<rect x="330" y="1194" width="80" height="5" class="http200"/>
<rect x="330" y="1191" width="80" height="5" class="http200"/>
<rect x="330" y="1188" width="80" height="5" class="http200"/>
<rect x="330" y="1185" width="80" height="5" class="http200"/>
<rect x="330" y="1182" width="80" height="5" class="http200"/>
<rect x="330" y="1179" width="80" height="5" class="http200"/>
<rect x="330" y="1176" width="80" height="5" class="http200"/>
<rect x="330" y="1173" width="80" height="5" class="http200"/>
<rect x="330" y="1170" width="80" height="5" class="http200"/>
<rect x="330" y="1167" width="80" height="5" class="http200"/>
<rect x="330" y="1164" width="80" height="5" class="http200"/>
<rect x="330" y="1161" width="80" height="5" class="http200"/>
<rect x="330" y="1158" width="80" height="5" class="http200"/>
<rect x="330" y="1155" width="80" height="5" class="http200"/>
<rect x="330" y="1152" width="80" height="5" class="http200"/>
<rect x="330" y="1149" width="80" height="5" class="http200"/>
<rect x="330" y="1146" width="80" height="5" class="http200"/>
<rect x="330" y="1143" width="80" height="5" class="http200"/>
<rect x="330" y="1140" width="80" height="5" class="http200"/>
<rect x="330" y="1137" width="80" height="5" class="http500"/>
<rect x="330" y="1134" width="80" height="5" class="http500"/>
<rect x="330" y="1131" width="80" height="5" class="http500"/>
<rect x="330" y="1128" width="80" height="5" class="http500"/>
<rect x="330" y="1125" width="80" height="5" class="http404"/>
<rect x="330" y="1122" width="80" height="5" class="http404"/>
<rect x="330" y="1119" width="80" height="5" class="http200"/>
<rect x="330" y="1116" width="80" height="5" class="http200"/>
<rect x="330" y="1113" width="80" height="5" class="http200"/>
<rect x="330" y="1110" width="80" height="5" class="http200"/>
<rect x="330" y="1107" width="80" height="5" class="http200"/>
<rect x="330" y="1104" width="80" height="5" class="http200"/>
<rect x="330" y="1101" width="80" height="5" class="http200"/>
<rect x="330" y="1098" width="80" height="5" class="http200"/>
<rect x="330" y="1095" width="80" height="5" class="http200"/>
<rect x="330" y="1092" width="80" height="5" class="http200"/>
<rect x="330" y="1089" width="80" height="5" class="http200"/>
<rect x="330" y="1086" width="80" height="5" class="http200"/>
<rect x="330" y="1083" width="80" height="5" class="http200"/>
<rect x="330" y="1080" width="80" height="5" class="http200"/>
<rect x="330" y="1077" width="80" height="5" class="http200"/>
<rect x="330" y="1074" width="80" height="5" class="http200"/>
<rect x="330" y="1071" width="80" height="5" class="http200"/>
<rect x="330" y="1068" width="80" height="5" class="http200"/>
<rect x="330" y="1065" width="80" height="5" class="http200"/>
<rect x="330" y="1062" width="80" height="5" class="http200"/>
<rect x="330" y="1059" width="80" height="5" class="http200"/>
<rect x="330" y="1056" width="80" height="5" class="http200"/>
<rect x="330" y="1053" width="80" height="5" class="http200"/>
<rect x="330" y="1050" width="80" height="5" class="http200"/>
<rect x="330" y="1047" width="80" height="5" class="http200"/>
<rect x="330" y="1044" width="80" height="5" class="http200"/>
<rect x="330" y="1041" width="80" height="5" class="http200"/>
<rect x="330" y="1038" width="80" height="5" class="http200"/>
<rect x="330" y="1035" width="80" height="5" class="http200"/>
<rect x="330" y="1032" width="80" height="5" class="http200"/>
<rect x="330" y="1029" width="80" height="5" class="http200"/>
<rect x="330" y="1026" width="80" height="5" class="http200"/>
<rect x="330" y="1023" width="80" height="5" class="http200"/>
<rect x="330" y="1020" width="80" height="5" class="http200"/>
<rect x="330" y="1017" width="80" height="5" class="http500"/>
<rect x="330" y="1014" width="80" height="5" class="http500"/>
<rect x="330" y="1011" width="80" height="5" class="http500"/>
<rect x="330" y="1008" width="80" height="5" class="http500"/>
<rect x="330" y="1005" width="80" height="5" class="http404"/>
<rect x="330" y="1002" width="80" height="5" class="http404"/>
<rect x="330" y="999" width="80" height="5" class="http200"/>
<rect x="330" y="996" width="80" height="5" class="http200"/>
<rect x="330" y="993" width="80" height="5" class="http200"/>
<rect x="330" y="990" width="80" height="5" class="http200"/>
<rect x="330" y="987" width="80" height="5" class="http200"/>
<rect x="330" y="984" width="80" height="5" class="http200"/>
<rect x="330" y="981" width="80" height="5" class="http200"/>
<rect x="330" y="978" width="80" height="5" class="http200"/>
<rect x="330" y="975" width="80" height="5" class="http200"/>
<rect x="330" y="972" width="80" height="5" class="http200"/>
<rect x="330" y="969" width="80" height="5" class="http200"/>
<rect x="330" y="966" width="80" height="5" class="http200"/>
<rect x="330" y="963" width="80" height="5" class="http200"/>
<rect x="330" y="960" width="80" height="5" class="http200"/>
<rect x="330" y="957" width="80" height="5" class="http200"/>
<rect x="330" y="954" width="80" height="5" class="http200"/>
<rect x="330" y="951" width="80" height="5" class="http200"/>
<rect x="330" y="948" width="80" height="5" class="http200"/>
<rect x="330" y="945" width="80" height="5" class="http200"/>
<rect x="330" y="942" width="80" height="5" class="http200"/>
<rect x="330" y="939" width="80" height="5" class="http200"/>
<rect x="330" y="936" width="80" height="5" class="http200"/>
<rect x="330" y="933" width="80" height="5" class="http200"/>
<rect x="330" y="930" width="80" height="5" class="http200"/>
<rect x="330" y="927" width="80" height="5" class="http200"/>
<rect x="330" y="924" width="80" height="5" class="http200"/>
<rect x="330" y="921" width="80" height="5" class="http200"/>
<rect x="330" y="918" width="80" height="5" class="http200"/>
<rect x="330" y="915" width="80" height="5" class="http200"/>
<rect x="330" y="912" width="80" height="5" class="http200"/>
<rect x="330" y="909" width="80" height="5" class="http200"/>
<rect x="330" y="906" width="80" height="5" class="http200"/>
<rect x="330" y="903" width="80" height="5" class="http200"/>
<rect x="330" y="900" width="80" height="5" class="http200"/>
<rect x="330" y="897" width="80" height="5" class="http500"/>
<rect x="330" y="894" width="80" height="5" class="http500"/>
<rect x="330" y="891" width="80" height="5" class="http500"/>
<rect x="330" y="888" width="80" height="5" class="http500"/>
<rect x="330" y="885" width="80" height="5" class="http404"/>
<rect x="330" y="882" width="80" height="5" class="http404"/>
<rect x="330" y="879" width="80" height="5" class="http200"/>
<rect x="330" y="876" width="80" height="5" class="http200"/>
<rect x="330" y="873" width="80" height="5" class="http200"/>
<rect x="330" y="870" width="80" height="5" class="http200"/>
<rect x="330" y="867" width="80" height="5" class="http200"/>
<rect x="330" y="864" width="80" height="5" class="http200"/>
<rect x="330" y="861" width="80" height="5" class="http200"/>
<rect x="330" y="858" width="80" height="5" class="http200"/>
<rect x="330" y="855" width="80" height="5" class="http200"/>
<rect x="330" y="852" width="80" height="5" class="http200"/>
<rect x="330" y="849" width="80" height="5" class="http200"/>
<rect x="330" y="846" width="80" height="5" class="http200"/>
<rect x="330" y="843" width="80" height="5" class="http200"/>
<rect x="330" y="840" width="80" height="5" class="http200"/>
<rect x="330" y="837" width="80" height="5" class="http200"/>
<rect x="330" y="834" width="80" height="5" class="http200"/>
<rect x="330" y="831" width="80" height="5" class="http200"/>
<rect x="330" y="828" width="80" height="5" class="http200"/>
<rect x="330" y="825" width="80" height="5" class="http200"/>
<rect x="330" y="822" width="80" height="5" class="http200"/>
<rect x="330" y="819" width="80" height="5" class="http200"/>
<rect x="330" y="816" width="80" height="5" class="http200"/>
<rect x="330" y="813" width="80" height="5" class="http200"/>
<rect x="330" y="810" width="80" height="5" class="http200"/>
<rect x="330" y="807" width="80" height="5" class="http200"/>
<rect x="330" y="804" width="80" height="5" class="http200"/>
<rect x="330" y="801" width="80" height="5" class="http200"/>
<rect x="330" y="798" width="80" height="5" class="http200"/>
<rect x="330" y="795" width="80" height="5" class="http200"/>
<rect x="330" y="792" width="80" height="5" class="http200"/>
<rect x="330" y="789" width="80" height="5" class="http200"/>
<rect x="330" y="786" width="80" height="5" class="http200"/>
<rect x="330" y="783" width="80" height="5" class="http200"/>
<rect x="330" y="780" width="80" height="5" class="http200"/>
<rect x="330" y="777" width="80" height="5" class="http500"/>
<rect x="330" y="774" width="80" height="5" class="http500"/>
<rect x="330" y="771" width="80" height="5" class="http500"/>
<rect x="330" y="768" width="80" height="5" class="http500"/>
<rect x="330" y="765" width="80" height="5" class="http404"/>
<rect x="330" y="762" width="80" height="5" class="http404"/>
<rect x="330" y="759" width="80" height="5" class="http200"/>
<rect x="330" y="756" width="80" height="5" class="http200"/>
<rect x="330" y="753" width="80" height="5" class="http200"/>
<rect x="330" y="750" width="80" height="5" class="http200"/>
<rect x="330" y="747" width="80" height="5" class="http200"/>
<rect x="330" y="744" width="80" height="5" class="http200"/>
<rect x="330" y="741" width="80" height="5" class="http200"/>
<rect x="330" y="738" width="80" height="5" class="http200"/>
<rect x="330" y="735" width="80" height="5" class="http200"/>
<rect x="330" y="732" width="80" height="5" class="http200"/>
<rect x="330" y="729" width="80" height="5" class="http200"/>
<rect x="330" y="726" width="80" height="5" class="http200"/>
<rect x="330" y="723" width="80" height="5" class="http200"/>
<rect x="415" y="840" width="80" height="5" class="http200"/>
<rect x="415" y="837" width="80" height="5" class="http200"/>
<rect x="415" y="834" width="80" height="5" class="http200"/>
<rect x="415" y="831" width="80" height="5" class="http200"/>
<rect x="415" y="828" width="80" height="5" class="http200"/>
<rect x="415" y="825" width="80" height="5" class="http200"/>
<rect x="415" y="822" width="80" height="5" class="http200"/>
<rect x="415" y="819" width="80" height="5" class="http200"/>
<rect x="415" y="816" width="80" height="5" class="http200"/>
<rect x="415" y="813" width="80" height="5" class="http200"/>
<rect x="415" y="810" width="80" height="5" class="http200"/>
<rect x="415" y="807" width="80" height="5" class="http200"/>
<rect x="415" y="804" width="80" height="5" class="http200"/>
<rect x="415" y="801" width="80" height="5" class="http200"/>
<rect x="415" y="798" width="80" height="5" class="http200"/>
<rect x="415" y="795" width="80" height="5" class="http200"/>
<rect x="415" y="792" width="80" height="5" class="http200"/>
<rect x="415" y="789" width="80" height="5" class="http200"/>
<rect x="415" y="786" width="80" height="5" class="http200"/>
<rect x="415" y="783" width="80" height="5" class="http200"/>
<rect x="415" y="780" width="80" height="5" class="http200"/>
<rect x="415" y="777" width="80" height="5" class="http500"/>
<rect x="415" y="774" width="80" height="5" class="http500"/>
<rect x="415" y="771" width="80" height="5" class="http500"/>
<rect x="415" y="768" width="80" height="5" class="http500"/>
<rect x="415" y="765" width="80" height="5" class="http404"/>
<rect x="415" y="762" width="80" height="5" class="http404"/>
<rect x="415" y="759" width="80" height="5" class="http200"/>
<rect x="415" y="756" width="80" height="5" class="http200"/>
<rect x="415" y="753" width="80" height="5" class="http200"/>
<rect x="415" y="750" width="80" height="5" class="http200"/>
<rect x="415" y="747" width="80" height="5" class="http200"/>
<rect x="415" y="744" width="80" height="5" class="http200"/>
<rect x="415" y="741" width="80" height="5" class="http200"/>
<rect x="415" y="738" width="80" height="5" class="http200"/>
<rect x="415" y="735" width="80" height="5" class="http200"/>
<rect x="415" y="732" width="80" height="5" class="http200"/>
<rect x="415" y="729" width="80" height="5" class="http200"/>
<rect x="415" y="726" width="80" height="5" class="http200"/>
<rect x="415" y="723" width="80" height="5" class="http200"/>
<rect x="500" y="840" width="80" height="5" class="http200"/>
<rect x="500" y="837" width="80" height="5" class="http200"/>
<rect x="500" y="834" width="80" height="5" class="http200"/>
<rect x="500" y="831" width="80" height="5" class="http200"/>
<rect x="500" y="828" width="80" height="5" class="http200"/>
<rect x="500" y="825" width="80" height="5" class="http200"/>
<rect x="500" y="822" width="80" height="5" class="http200"/>
<rect x="500" y="819" width="80" height="5" class="http200"/>
<rect x="500" y="816" width="80" height="5" class="http200"/>
<rect x="500" y="813" width="80" height="5" class="http200"/>
<rect x="500" y="810" width="80" height="5" class="http200"/>
<rect x="500" y="807" width="80" height="5" class="http200"/>
<rect x="500" y="804" width="80" height="5" class="http200"/>
<rect x="500" y="801" width="80" height="5" class="http200"/>
<rect x="500" y="798" width="80" height="5" class="http200"/>
<rect x="500" y="795" width="80" height="5" class="http200"/>
<rect x="500" y="792" width="80" height="5" class="http200"/>
<rect x="500" y="789" width="80" height="5" class="http200"/>
<rect x="500" y="786" width="80" height="5" class="http200"/>
<rect x="500" y="783" width="80" height="5" class="http200"/>
<rect x="500" y="780" width="80" height="5" class="http200"/>
<rect x="500" y="777" width="80" height="5" class="http500"/>
<rect x="500" y="774" width="80" height="5" class="http500"/>
<rect x="500" y="771" width="80" height="5" class="http500"/>
<rect x="500" y="768" width="80" height="5" class="http500"/>
<rect x="500" y="765" width="80" height="5" class="http404"/>
<rect x="500" y="762" width="80" height="5" class="http404"/>
<rect x="500" y="759" width="80" height="5" class="http200"/>
<rect x="500" y="756" width="80" height="5" class="http200"/>
<rect x="500" y="753" width="80" height="5" class="http200"/>
<rect x="500" y="750" width="80" height="5" class="http200"/>
<rect x="500" y="747" width="80" height="5" class="http200"/>
<rect x="500" y="744" width="80" height="5" class="http200"/>
<rect x="500" y="741" width="80" height="5" class="http200"/>
<rect x="500" y="738" width="80" height="5" class="http200"/>
<rect x="500" y="735" width="80" height="5" class="http200"/>
<rect x="500" y="732" width="80" height="5" class="http200"/>
<rect x="500" y="729" width="80" height="5" class="http200"/>
<rect x="500" y="726" width="80" height="5" class="http200"/>
<rect x="500" y="723" width="80" height="5" class="http200"/>
<rect x="585" y="840" width="80" height="5" class="http200"/>
<rect x="585" y="837" width="80" height="5" class="http200"/>
<rect x="585" y="834" width="80" height="5" class="http200"/>
<rect x="585" y="831" width="80" height="5" class="http200"/>
<rect x="585" y="828" width="80" height="5" class="http200"/>
<rect x="585" y="825" width="80" height="5" class="http200"/>
<rect x="585" y="822" width="80" height="5" class="http200"/>
<rect x="585" y="819" width="80" height="5" class="http200"/>
<rect x="585" y="816" width="80" height="5" class="http200"/>
<rect x="585" y="813" width="80" height="5" class="http200"/>
<rect x="585" y="810" width="80" height="5" class="http200"/>
<rect x="585" y="807" width="80" height="5" class="http200"/>
<rect x="585" y="804" width="80" height="5" class="http200"/>
<rect x="585" y="801" width="80" height="5" class="http200"/>
<rect x="585" y="798" width="80" height="5" class="http200"/>
<rect x="585" y="795" width="80" height="5" class="http200"/>
<rect x="585" y="792" width="80" height="5" class="http200"/>
<rect x="585" y="789" width="80" height="5" class="http200"/>
<rect x="585" y="786" width="80" height="5" class="http200"/>
<rect x="585" y="783" width="80" height="5" class="http200"/>
<rect x="585" y="780" width="80" height="5" class="http200"/>
<rect x="585" y="777" width="80" height="5" class="http500"/>
<rect x="585" y="774" width="80" height="5" class="http500"/>
<rect x="585" y="771" width="80" height="5" class="http500"/>
<rect x="585" y="768" width="80" height="5" class="http500"/>
<rect x="585" y="765" width="80" height="5" class="http404"/>
<rect x="585" y="762" width="80" height="5" class="http404"/>
<rect x="585" y="759" width="80" height="5" class="http200"/>
<rect x="585" y="756" width="80" height="5" class="http200"/>
<rect x="585" y="753" width="80" height="5" class="http200"/>
<rect x="585" y="750" width="80" height="5" class="http200"/>
<rect x="585" y="747" width="80" height="5" class="http200"/>
<rect x="585" y="744" width="80" height="5" class="http200"/>
<rect x="585" y="741" width="80" height="5" class="http200"/>
<rect x="585" y="738" width="80" height="5" class="http200"/>
<rect x="585" y="735" width="80" height="5" class="http200"/>
<rect x="585" y="732" width="80" height="5" class="http200"/>
<rect x="585" y="729" width="80" height="5" class="http200"/>
<rect x="585" y="726" width="80" height="5" class="http200"/>
<rect x="585" y="723" width="80" height="5" class="http200"/>
<text x="95" y="1460">09.02</text>
<text x="180" y="1460">10.02</text>
<text x="265" y="1460">11.02</text>
<text x="350" y="1460">12.02</text>
<text x="435" y="1460">13.02</text>
<text x="520" y="1460">14.02</text>
<text x="605" y="1460">15.02</text>
<text x="70" y="1480">09.02.2021 - 16.02.2021</text>
<text x="70" y="1500">Online 85%</text>
</svg>
